Entities and relation extraction • sto
…
Extracting a graph

It is possible to extract a graph from the extracted entities. First,
happens the tokenization by sentence or paragraph. Than, the entities
are extracted using extract_entity(). Than a data frame
with the coocurrence of words in sentences or paragraph is build.

vonNeumann_txt |> extract_graph()
#> Tokenizing by sentences
#> # A tibble: 27 × 2
#>    n1               n2                 
#>    <chr>            <chr>              
#>  1 John von Neumann NOY-               
#>  2 John von Neumann Hungarian          
#>  3 John von Neumann Neumann János Lajos
#>  4 John von Neumann December           
#>  5 John von Neumann February           
#>  6 John von Neumann Hungarian          
#>  7 John von Neumann American           
#>  8 NOY-             Hungarian          
#>  9 NOY-             Neumann János Lajos
#> 10 NOY-             December           
#> # ℹ 17 more rows

It cant take a while. So, if you are interested only in some words,
so first of all, filter the sentences/paragraphs with such words, than
extract the graph.

page <- "https://en.wikipedia.org/wiki/GNU_General_Public_License" |> rvest::read_html()
text <- page |>
  rvest::html_nodes("p") |>
  rvest::html_text()
str(text)
#>  chr [1:125] "\n\n" ...
g <- text |> extract_graph(sw = gen_stopwords("en", include = "The This It"))
#> Tokenizing by sentences
g
#> # A tibble: 3,669 × 2
#>    n1                              n2                           
#>    <chr>                           <chr>                        
#>  1 The GNU General Public Licenses GNU GPL                      
#>  2 The GNU General Public Licenses GPL                          
#>  3 The GNU General Public Licenses Richard Stallman             
#>  4 The GNU General Public Licenses Free Software Foundation     
#>  5 The GNU General Public Licenses FSF                          
#>  6 The GNU General Public Licenses GNU Project                  
#>  7 The GNU General Public Licenses Free Software Definition     
#>  8 The GNU General Public Licenses GPL                          
#>  9 The GNU General Public Licenses Lesser General Public License
#> 10 The GNU General Public Licenses BSD                          
#> # ℹ 3,659 more rows
g_N <- g |> dplyr::count(n1, n2, sort = T)
g_N
#> # A tibble: 2,409 × 3
#>    n1           n2              n
#>    <chr>        <chr>       <int>
#>  1 GPLv3        GPLv2          24
#>  2 Artifex      Hancom         19
#>  3 Ghostscript  Hancom         19
#>  4 Linux        GPL            16
#>  5 GPL          FSF            14
#>  6 GPL-licensed GPL            14
#>  7 GPL          GPLv3          13
#>  8 Artifex      Ghostscript    12
#>  9 However      GPL            12
#> 10 FSF          GPL            11
#> # ℹ 2,399 more rows
…
